…
``` r
# Show the mean of points per game per million in salary across all 73 players.
mean(NBA_Stats1$'PPG/Million')
```

    ## [1] 0.7718211

#### At this point, we have found the means and standard deviations for all numerical variables. This was done to be able to better understand and explore the data.

``` r
# Find the average points per game of each team represented in the dataset
NBA_Stats1 %>% group_by(`Team Name`) %>% summarise(PPG = mean(PPG))
```

    ## # A tibble: 29 x 2
    ##    `Team Name`             PPG
    ##    <chr>                 <dbl>
    ##  1 Boston Celtics         19.2
    ##  2 Brooklyn Nets          27.4
    ##  3 Charlotte Hornets      18  
    ##  4 Chicago Bulls          18.7
    ##  5 Cleveland Cavaliers    14.8
    ##  6 Dallas Mavericks       20.0
    ##  7 Denver Nuggets         19.9
    ##  8 Detroit Pistons        16.9
    ##  9 Golden State Warriors  20.8
    ## 10 Houston Rockets        26.5
    ## # ... with 19 more rows

#### We can see here that there are 29 teams represented in this dataset

``` r
# Find the standard deviation of points per game of each team represented in the dataset
NBA_Stats1 %>% group_by(`Team Name`) %>% summarise(PPG = sd(PPG)) 
```

    ## # A tibble: 29 x 2
    ##    `Team Name`             PPG
    ##    <chr>                 <dbl>
    ##  1 Boston Celtics         1.50
    ##  2 Brooklyn Nets         NA   
    ##  3 Charlotte Hornets     NA   
    ##  4 Chicago Bulls          9.62
    ##  5 Cleveland Cavaliers    3.96
    ##  6 Dallas Mavericks       3.97
    ##  7 Denver Nuggets        NA   
    ##  8 Detroit Pistons        1.25
    ##  9 Golden State Warriors NA   
    ## 10 Houston Rockets        8.22
    ## # ... with 19 more rows
…
